5 REM "Ce programme est formidable."
10 IMPRIME "Test SINON"
15 NL
20 IMPRIME "ne s'imprime pas lala"
20 ENTREE I, A
25 I = 0
30 SI I > 10 ALORS VAVERS 40 SINON IMPRIME "I : "
35 IMPRIME I, " "
36 NL
37 I = I + A
39 VAVERS 30
40 FIN
50 IMPRIME "ne s'imprime pas"
